{
  "data": [
    {
      "번호": "",
      "화면ID": "Audit_01",
      "D1": "뎁스1내용",
      "D2": "덱스2내용",
      "D3": "뎁스3내용",
      "D4": "뎁스4내용",
      "D5": "뎁스5내용",
      "구분1": "USR",
      "구분2": "PG",
      "요청": "ASAP(10-17)",
      "PATH": "",
      "Figma": "https://www.figma.com/files/team/930350539298949547/Bizwave?fuid=1029285216458957287",
      "착수일": "2021-10-17",
      "완료일": "2021-10-24",
      "담당자": "Arjun",
      "진행상태": "진행전",
      "비고": ""
    }
  ]
}