<svg width="24" height="24" viewBox="0 0 24 24" fill="none" xmlns="http://www.w3.org/2000/svg">
<path fill-rule="evenodd" clip-rule="evenodd" d="M10.9904 2.90306C11.2665 2.65201 11.6263 2.51289 11.9994 2.51288C12.3726 2.51287 12.7324 2.65196 13.0085 2.90299L20.509 9.7219C20.6637 9.86249 20.7872 10.0338 20.8718 10.225C20.9563 10.4161 21 10.6228 21 10.8318V19.4999C21 19.6969 20.9612 19.892 20.8858 20.074C20.8104 20.256 20.6999 20.4214 20.5606 20.5607C20.4213 20.6999 20.2559 20.8104 20.0739 20.8858C19.8919 20.9612 19.6968 21 19.4998 20.9999L14.9993 20.9993C14.6015 20.9993 14.22 20.8412 13.9387 20.5599C13.6575 20.2786 13.4994 19.8971 13.4995 19.4993V14.9992L10.4995 14.9992V19.4993C10.4995 19.8971 10.3414 20.2786 10.0602 20.5599C9.77891 20.8412 9.39743 20.9993 8.99964 20.9993L4.50019 20.9999C4.30319 20.9999 4.10812 20.9612 3.9261 20.8858C3.74409 20.8104 3.57871 20.6999 3.43941 20.5607C3.3001 20.4214 3.18959 20.256 3.1142 20.074C3.0388 19.892 3 19.6969 3 19.4999V10.8318C3 10.6228 3.04367 10.4161 3.1282 10.225C3.21274 10.0339 3.33628 9.86253 3.4909 9.72194L10.9904 2.90306ZM19.5 10.8318L11.9995 4.01288L4.5 10.8318V19.4999L8.99945 19.4993V14.9992C8.99945 14.6014 9.15749 14.2199 9.43879 13.9386C9.72009 13.6573 10.1016 13.4992 10.4995 13.4992H13.4995C13.8973 13.4992 14.2788 13.6573 14.5601 13.9386C14.8414 14.2199 14.9995 14.6014 14.9995 14.9992V19.4993L19.5 19.4999V10.8318Z" fill="white"/>
</svg>
