<svg width="16" height="16" viewBox="0 0 16 16" fill="none" xmlns="http://www.w3.org/2000/svg">
<path d="M5 8.5L2 5.5L5 2.5" stroke="white" stroke-linecap="round" stroke-linejoin="round"/>
<path d="M5 12.5H10.5C11.4283 12.5 12.3185 12.1313 12.9749 11.4749C13.6313 10.8185 14 9.92826 14 9V8.99999C14 8.54037 13.9095 8.08524 13.7336 7.6606C13.5577 7.23596 13.2999 6.85013 12.9749 6.52512C12.6499 6.20012 12.264 5.94231 11.8394 5.76642C11.4148 5.59053 10.9596 5.5 10.5 5.5H2" stroke="white" stroke-linecap="round" stroke-linejoin="round"/>
</svg>
