<svg width="24" height="24" viewBox="0 0 24 24" fill="none" xmlns="http://www.w3.org/2000/svg">
<path fill-rule="evenodd" clip-rule="evenodd" d="M8.25 9C8.25 8.58579 8.58579 8.25 9 8.25H15C15.4142 8.25 15.75 8.58579 15.75 9C15.75 9.41421 15.4142 9.75 15 9.75H9C8.58579 9.75 8.25 9.41421 8.25 9Z" fill="#4B4B4B"/>
<path fill-rule="evenodd" clip-rule="evenodd" d="M8.25 12C8.25 11.5858 8.58579 11.25 9 11.25H15C15.4142 11.25 15.75 11.5858 15.75 12C15.75 12.4142 15.4142 12.75 15 12.75H9C8.58579 12.75 8.25 12.4142 8.25 12Z" fill="#4B4B4B"/>
<path fill-rule="evenodd" clip-rule="evenodd" d="M8.25 15C8.25 14.5858 8.58579 14.25 9 14.25H12C12.4142 14.25 12.75 14.5858 12.75 15C12.75 15.4142 12.4142 15.75 12 15.75H9C8.58579 15.75 8.25 15.4142 8.25 15Z" fill="#4B4B4B"/>
<path fill-rule="evenodd" clip-rule="evenodd" d="M3.43934 3.43934C3.72064 3.15804 4.10217 3 4.5 3H19.5C19.8978 3 20.2794 3.15804 20.5607 3.43934C20.842 3.72065 21 4.10218 21 4.5V14.6893C21 14.8863 20.9612 15.0814 20.8858 15.2634C20.8104 15.4454 20.6999 15.6107 20.5607 15.75L15.75 20.5607C15.6107 20.6999 15.4454 20.8104 15.2634 20.8858C15.0814 20.9612 14.8863 21 14.6893 21H4.5C4.10218 21 3.72065 20.842 3.43934 20.5607C3.15804 20.2794 3 19.8978 3 19.5V4.5C3 4.10217 3.15804 3.72064 3.43934 3.43934ZM19.5 4.5L4.5 4.5L4.5 19.5L14.6893 19.5L19.5 14.6893V4.5Z" fill="#4B4B4B"/>
<path fill-rule="evenodd" clip-rule="evenodd" d="M14.25 14.9993C14.25 14.5851 14.5858 14.2493 15 14.2493H20.1821C20.5963 14.2493 20.9321 14.5851 20.9321 14.9993C20.9321 15.4135 20.5963 15.7493 20.1821 15.7493H15.75V20.1818C15.75 20.596 15.4142 20.9318 15 20.9318C14.5858 20.9318 14.25 20.596 14.25 20.1818V14.9993Z" fill="#4B4B4B"/>
</svg>
