<svg width="17" height="17" viewBox="0 0 17 17" fill="none" xmlns="http://www.w3.org/2000/svg">
<path fill-rule="evenodd" clip-rule="evenodd" d="M5.5 4.5C5.5 4.22386 5.72386 4 6 4H14C14.2761 4 14.5 4.22386 14.5 4.5C14.5 4.77614 14.2761 5 14 5H6C5.72386 5 5.5 4.77614 5.5 4.5Z" fill="#666666"/>
<path fill-rule="evenodd" clip-rule="evenodd" d="M5.5 8.5C5.5 8.22386 5.72386 8 6 8H13.9996C14.2758 8 14.4996 8.22386 14.4996 8.5C14.4996 8.77614 14.2758 9 13.9996 9H6C5.72386 9 5.5 8.77614 5.5 8.5Z" fill="#666666"/>
<path fill-rule="evenodd" clip-rule="evenodd" d="M5.5 12.5C5.5 12.2239 5.72386 12 6 12H13.9996C14.2758 12 14.4996 12.2239 14.4996 12.5C14.4996 12.7761 14.2758 13 13.9996 13H6C5.72386 13 5.5 12.7761 5.5 12.5Z" fill="#666666"/>
<path d="M3.25 5.25C3.66421 5.25 4 4.91421 4 4.5C4 4.08579 3.66421 3.75 3.25 3.75C2.83579 3.75 2.5 4.08579 2.5 4.5C2.5 4.91421 2.83579 5.25 3.25 5.25Z" fill="#666666"/>
<path d="M3.25 9.25C3.66421 9.25 4 8.91421 4 8.5C4 8.08579 3.66421 7.75 3.25 7.75C2.83579 7.75 2.5 8.08579 2.5 8.5C2.5 8.91421 2.83579 9.25 3.25 9.25Z" fill="#666666"/>
<path d="M3.25 13.25C3.66421 13.25 4 12.9142 4 12.5C4 12.0858 3.66421 11.75 3.25 11.75C2.83579 11.75 2.5 12.0858 2.5 12.5C2.5 12.9142 2.83579 13.25 3.25 13.25Z" fill="#666666"/>
</svg>
